[
	{"id":"mon1",
	"name":"lobby monitor",
	"cameras":[
		null,
		"1-080-000-0",
		"1-265-000-8",
		"1-065-000-1",
		"1-065-000-8",
		"1-265-000-0",
		null,
		null,
		null
	]},
	{"id":"mon2",
	"name":"ops monitor 1",
	"cameras":[
		"1-069-250-0",
		null,
		"1-065-250-2",
		null
	]},
	{"id":"mon3",
	"name":"ops monitor 3",
	"cameras":[
		null
	]}
]