<?xml version="1.0" encoding="utf-8"?>
<!-- Generator: Adobe Illustrator 23.0.2, SVG Export Plug-In . SVG Version: 6.00 Build 0)  -->
<svg version="1.1" id="Layer_1" xmlns="http://www.w3.org/2000/svg" xmlns:xlink="http://www.w3.org/1999/xlink" x="0px" y="0px"
	 viewBox="0 0 22 22" style="enable-background:new 0 0 22 22;" xml:space="preserve">
<style type="text/css">
	.st0{fill:#0C2440;}
</style>
<g transform="translate(-359 -300)">
	<path class="st0" d="M380.3,301h-20.6c-0.4,0-0.7,0.3-0.7,0.7v9.8c0,0.4,0.3,0.7,0.7,0.7l0,0h20.6c0.4,0,0.7-0.3,0.7-0.7l0,0v-9.8
		C381,301.3,380.7,301,380.3,301z M363,319.7c0,0.7,0.6,1.3,1.2,1.3h0.9c0.7,0,1.2-0.6,1.2-1.3c0,0,0,0,0,0v-6.1H363L363,319.7z
		 M374.6,319.7c0,0.7,0.6,1.3,1.2,1.3l0,0h0.9c0.7,0,1.2-0.6,1.2-1.3v-6.1h-3.4L374.6,319.7z M377.6,305.7h-15.3
		c-0.5,0-0.9-0.4-0.9-0.9l0,0c0-0.5,0.4-0.9,0.9-0.9h15.3c0.5,0,0.9,0.4,0.9,0.9l0,0C378.5,305.3,378.1,305.7,377.6,305.7
		L377.6,305.7z M375.4,309.3h-10.7c-0.5,0-0.9-0.4-0.9-0.9l0,0c0-0.5,0.4-0.9,0.9-0.9h10.7c0.5,0,0.9,0.4,0.9,0.9l0,0
		C376.2,308.9,375.9,309.3,375.4,309.3z"/>
</g>
</svg>
